{
  "posts": [
    {
      "id": 394242,
      "user_info": {
        "id": 394242,
        "name": "olga_m",
        "location": "Kharkiv, sumskaya str. 50",
        "avatar_url": "https://i.ytimg.com/vi/oMlx_sPCKTI/maxresdefault.jpg"
      },
      "message": {
        "id": 394242,
        "title": "Весна пришла, коты полезли на деревья",
        "photos": [
          "https://bugaga.ru/uploads/posts/2008-04/1207734662_x_1e58a97f.jpg",
          "https://www.stihi.ru/pics/2015/03/20/6219.jpg"
        ],
        "liked_by": "Liked by vasya_pupkin, vova_malysh, goga_krasavchik and 65 others",
        "tags": "#весна #коты #абрикос цветет #абрикос #ржака #котенка жалко #нужны высотники",
        "lasted": "4 hours ago"
      }
    },
    {
      "id": 394244,
      "user_info": {
        "id": 456435,
        "name": "lera_w",
        "location": "Russia, farm Ugrim",
        "avatar_url": "https://peopletalk.ru/wp-content/uploads/2017/11/lera1.jpg"
      },
      "message": {
        "id": 394242,
        "title": "Нафоткала в деревне пейзажиков",
        "photos": [
          "https://loveopium.ru/content/2014/06/baby/00.jpg",
          "https://themepack.me/i/c/749x468/media/g/417/spring-theme-9.jpg",
          "https://allthatsinteresting.com/wordpress/wp-content/uploads/2020/06/baby-hedgehogs.jpg"
        ],
        "liked_by": "Liked by lena_pupkina, sveta_svetik, valeria_l and 65 others",
        "tags": "#весна #природа #цветы #красота #деревня",
        "lasted": "10 hours ago"
      }
    }
  ]
}